15 Описательные статистики | HSE UX LAB | Анализ данных + R: мир линейных моделей | Book
…
## `summarise()` regrouping output by 'trialtype', 'setsize', 'platform' (override with `.groups` argument)

## # A tibble: 216 x 13
## # Groups:   trialtype, setsize, platform [12]
##    trialtype setsize platform    id  mean median    var    sd   min   max     se
##    <chr>       <dbl> <chr>    <dbl> <dbl>  <dbl>  <dbl> <dbl> <dbl> <dbl>  <dbl>
##  1 dots            8 android      4  1.37  1.16  0.342  0.585 0.750  3.40 0.0827
##  2 dots            8 android      6  1.20  0.945 0.669  0.818 0.667  5.92 0.116 
##  3 dots            8 android      7  1.86  1.77  0.325  0.570 0.809  3.15 0.0807
##  4 dots            8 android      8  1.85  1.59  0.578  0.760 1.03   4.53 0.108 
##  5 dots            8 android     10  1.04  0.964 0.0997 0.316 0.614  2.01 0.0447
##  6 dots            8 android     11  1.20  1.11  0.145  0.380 0.766  2.45 0.0538
##  7 dots            8 android     12  1.21  1.06  0.199  0.447 0.666  2.62 0.0632
##  8 dots            8 android     15  1.48  1.29  0.445  0.667 0.807  4.55 0.0943
##  9 dots            8 android     16  1.16  1.05  0.233  0.483 0.648  2.65 0.0683
## 10 dots            8 android     18  1.42  1.20  0.287  0.536 0.813  2.96 0.0758
## # … with 206 more rows, and 2 more variables: skew <dbl>, kurt <dbl>
…
## `summarise()` regrouping output by 'trialtype', 'setsize', 'platform' (override with `.groups` argument)

## Joining, by = c("trialtype", "setsize", "platform", "id")

Вот так мы удалили все выбросы. Можно было также воспользоваться функцией is_outlier(), которую мы написали в одном из заданий:

share %>% 
  filter(trialtype != 'both') %>% 
  group_by(trialtype, setsize, platform, id) %>% 
  mutate(outlier = is_outlier(time1)) %>% 
  filter(!outlier)

## # A tibble: 10,213 x 23
## # Groups:   trialtype, setsize, platform, id [216]
##    trialtype setsize time1 click1x click1y time2 click2x click2y    id platform
##    <chr>       <dbl> <dbl>   <dbl>   <dbl> <dbl>   <dbl>   <dbl> <dbl> <chr>   
##  1 tray            8  1.67    -227     202 1.28       14    -351     1 ios     
##  2 tray            8  1.13     -69     231 1.06      -44    -392     1 ios     
##  3 tray            8  1.59    -241      43 0.931     -25    -397     1 ios     
##  4 tray            8  1.14     -51      59 0.896      10    -383     1 ios     
##  5 tray            8  2.14      99      62 0.879     -29    -372     1 ios     
##  6 tray            8  1.63     213      46 0.947     -27    -353     1 ios     
##  7 tray            8  2.02     -70     -82 0.970     -19    -394     1 ios     
##  8 tray            8  1.08      72     -95 1.33       30    -399     1 ios     
##  9 tray            8  1.50     222     -55 0.879      46    -344     1 ios     
## 10 tray            8  1.36    -231    -229 0.880      -8    -388     1 ios     
## # … with 10,203 more rows, and 13 more variables: posx1 <dbl>, posy1 <dbl>,
## #   posxmin1 <dbl>, posxmax1 <dbl>, posymin1 <dbl>, posymax1 <dbl>,
## #   posx2 <dbl>, posy2 <dbl>, posxmin2 <dbl>, posxmax2 <dbl>, posymin2 <dbl>,
## #   posymax2 <dbl>, outlier <lgl>
…
