7 Предобработка данных. Концепция tidy data | HSE UX LAB | Анализ данных + R: мир линейных моделей | Book
…
data.frame(age = sample(18:60, size = 30),
           group = ifelse(age > 40, 'old',
                          ifelse(age < 25, 'young', 'middle')))

## Error in ifelse(age > 40, "old", ifelse(age < 25, "young", "middle")): object 'age' not found

R говорит нам, что переменная age ещё не создана, что в целом достаточно справедливо. Мы можем эту напасть побороть, сначала создав переменную age, а затем сделать новую переменную group через присваивание… но чёт лень…

Лучше воспользуемся мощностями tibble:

tibble(age = sample(18:60, size = 30),
           group = ifelse(age > 40, 'old',
                          ifelse(age < 25, 'young', 'middle')))

## # A tibble: 30 x 2
##      age group 
##    <int> <chr> 
##  1    31 middle
##  2    40 middle
##  3    56 old   
##  4    27 middle
##  5    52 old   
##  6    55 old   
##  7    29 middle
##  8    53 old   
##  9    48 old   
## 10    30 middle
## # … with 20 more rows
…
7.5.2 select()

Фнукция select() выбирает опредлённые колонки из нашего датасета. Работает очень просто:

raw01 %>% select(trialtype,
                 setsize,
                 numtrial,
                 mouse_main1.time_raw,
                 mouse_main1.x_raw,
                 mouse_main1.y_raw,
                 mouse_main2.time_raw,
                 mouse_main2.x_raw,
                 mouse_main2.y_raw)

## # A tibble: 459 x 9
##    trialtype setsize numtrial mouse_main1.tim… mouse_main1.x_r… mouse_main1.y_r…
##    <chr>       <dbl>    <dbl>            <dbl>            <dbl>            <dbl>
##  1 tray            8        1             1.67             -227              202
##  2 tray            8        2             1.13              -69              231
##  3 tray            8        3             2.60               60              195
##  4 tray            8        4             2.61              199              213
##  5 tray            8        5             1.59             -241               43
##  6 tray            8        6             1.14              -51               59
##  7 tray            8        7             2.14               99               62
##  8 tray            8        8             1.63              213               46
##  9 tray            8        9             2.56             -201             -123
## 10 tray            8       10             2.02              -70              -82
## # … with 449 more rows, and 3 more variables: mouse_main2.time_raw <dbl>,
## #   mouse_main2.x_raw <dbl>, mouse_main2.y_raw <dbl>
…
                 numtrial,
                 mouse_main1.time_raw,
                 mouse_main1.x_raw,
                 mouse_main1.y_raw,
                 mouse_main2.time_raw,
                 mouse_main2.x_raw,
                 mouse_main2.y_raw) %>% 
  rename(time1 = mouse_main1.time_raw,
         click1x = mouse_main1.x_raw,
         click1y = mouse_main1.y_raw,
         time2 = mouse_main2.time_raw,
         click2x = mouse_main2.x_raw,
         click2y = mouse_main2.y_raw)

## # A tibble: 459 x 9
##    trialtype setsize numtrial time1 click1x click1y time2 click2x click2y
##    <chr>       <dbl>    <dbl> <dbl>   <dbl>   <dbl> <dbl>   <dbl>   <dbl>
##  1 tray            8        1  1.67    -227     202 1.28       14    -351
##  2 tray            8        2  1.13     -69     231 1.06      -44    -392
##  3 tray            8        3  2.60      60     195 0.963      17    -361
##  4 tray            8        4  2.61     199     213 0.863     -26    -356
##  5 tray            8        5  1.59    -241      43 0.931     -25    -397
##  6 tray            8        6  1.14     -51      59 0.896      10    -383
##  7 tray            8        7  2.14      99      62 0.879     -29    -372
##  8 tray            8        8  1.63     213      46 0.947     -27    -353
##  9 tray            8        9  2.56    -201    -123 1.65      -25    -385
## 10 tray            8       10  2.02     -70     -82 0.970     -19    -394
## # … with 449 more rows
…
                 mouse_main1.time_raw,
                 mouse_main1.x_raw,
                 mouse_main1.y_raw,
                 mouse_main2.time_raw,
                 mouse_main2.x_raw,
                 mouse_main2.y_raw) %>% 
  rename(time1 = mouse_main1.time_raw,
         click1x = mouse_main1.x_raw,
         click1y = mouse_main1.y_raw,
         time2 = mouse_main2.time_raw,
         click2x = mouse_main2.x_raw,
         click2y = mouse_main2.y_raw) %>% 
  slice(1:450) # мы знаем, что у нас было 450 экспериментальных проб

## # A tibble: 450 x 9
##    trialtype setsize numtrial time1 click1x click1y time2 click2x click2y
##    <chr>       <dbl>    <dbl> <dbl>   <dbl>   <dbl> <dbl>   <dbl>   <dbl>
##  1 tray            8        1  1.67    -227     202 1.28       14    -351
##  2 tray            8        2  1.13     -69     231 1.06      -44    -392
##  3 tray            8        3  2.60      60     195 0.963      17    -361
##  4 tray            8        4  2.61     199     213 0.863     -26    -356
##  5 tray            8        5  1.59    -241      43 0.931     -25    -397
##  6 tray            8        6  1.14     -51      59 0.896      10    -383
##  7 tray            8        7  2.14      99      62 0.879     -29    -372
##  8 tray            8        8  1.63     213      46 0.947     -27    -353
##  9 tray            8        9  2.56    -201    -123 1.65      -25    -385
## 10 tray            8       10  2.02     -70     -82 0.970     -19    -394
## # … with 440 more rows
…
                 mouse_main1.x_raw,
                 mouse_main1.y_raw,
                 mouse_main2.time_raw,
                 mouse_main2.x_raw,
                 mouse_main2.y_raw) %>% 
  rename(time1 = mouse_main1.time_raw,
         click1x = mouse_main1.x_raw,
         click1y = mouse_main1.y_raw,
         time2 = mouse_main2.time_raw,
         click2x = mouse_main2.x_raw,
         click2y = mouse_main2.y_raw) %>% 
  slice(1:450) %>% 
  filter(trialtype != 'both')

## # A tibble: 300 x 9
##    trialtype setsize numtrial time1 click1x click1y time2 click2x click2y
##    <chr>       <dbl>    <dbl> <dbl>   <dbl>   <dbl> <dbl>   <dbl>   <dbl>
##  1 tray            8        1  1.67    -227     202 1.28       14    -351
##  2 tray            8        2  1.13     -69     231 1.06      -44    -392
##  3 tray            8        3  2.60      60     195 0.963      17    -361
##  4 tray            8        4  2.61     199     213 0.863     -26    -356
##  5 tray            8        5  1.59    -241      43 0.931     -25    -397
##  6 tray            8        6  1.14     -51      59 0.896      10    -383
##  7 tray            8        7  2.14      99      62 0.879     -29    -372
##  8 tray            8        8  1.63     213      46 0.947     -27    -353
##  9 tray            8        9  2.56    -201    -123 1.65      -25    -385
## 10 tray            8       10  2.02     -70     -82 0.970     -19    -394
## # … with 290 more rows
…
А если весь датасет?

7.8.2 arrange()

Тогда вот так:

share %>% arrange(numtrial)

## # A tibble: 6,000 x 10
##    trialtype setsize numtrial time1 click1x click1y time2 click2x click2y    id
##    <chr>       <dbl>    <dbl> <dbl>   <dbl>   <dbl> <dbl>   <dbl>   <dbl> <int>
##  1 tray            8        1 1.67     -227     202 1.28       14    -351     1
##  2 tray            8        1 2.25     -252     198 2.53       28    -362     2
##  3 tray            8        1 1.04     -212     211 0.969      27    -384     3
##  4 tray            8        1 1.32     -244     199 0.666     -15    -408     4
##  5 tray            8        1 0.905    -255     190 0.361     150    -369     5
##  6 tray            8        1 2.45        6    -357 2.27       83      36     6
##  7 tray            8        1 1.44     -224     175 0.797      31    -345     7
##  8 tray            8        1 1.49     -243     219 1.05        2    -378     8
##  9 tray            8        1 1.10     -232     198 0.781      42    -403     9
## 10 tray            8        1 0.981    -226     202 0.582     -21    -372    10
## # … with 5,990 more rows

Или по двум переменным сразу:

share %>% arrange(numtrial, id)

## # A tibble: 6,000 x 10
##    trialtype setsize numtrial time1 click1x click1y time2 click2x click2y    id
##    <chr>       <dbl>    <dbl> <dbl>   <dbl>   <dbl> <dbl>   <dbl>   <dbl> <int>
##  1 tray            8        1 1.67     -227     202 1.28       14    -351     1
##  2 tray            8        1 2.25     -252     198 2.53       28    -362     2
##  3 tray            8        1 1.04     -212     211 0.969      27    -384     3
##  4 tray            8        1 1.32     -244     199 0.666     -15    -408     4
##  5 tray            8        1 0.905    -255     190 0.361     150    -369     5
##  6 tray            8        1 2.45        6    -357 2.27       83      36     6
##  7 tray            8        1 1.44     -224     175 0.797      31    -345     7
##  8 tray            8        1 1.49     -243     219 1.05        2    -378     8
##  9 tray            8        1 1.10     -232     198 0.781      42    -403     9
## 10 tray            8        1 0.981    -226     202 0.582     -21    -372    10
## # … with 5,990 more rows
…
## # A tibble: 3 x 2
##      id x1   
##   <int> <chr>
## 1     1 A    
## 2     3 C    
## 3     5 E

Как нам это поможет? У нас есть колонка id в обоих датасетах — share и platform. По ней мы и сможем соединить наши тибблы. Нам надо сделать так, чтобы все наши экспериментальные данные были сохранны. Используем left_join():

share %>% left_join(platform)

## Joining, by = "id"

## # A tibble: 6,000 x 11
##    trialtype setsize numtrial time1 click1x click1y time2 click2x click2y    id
##    <chr>       <dbl>    <dbl> <dbl>   <dbl>   <dbl> <dbl>   <dbl>   <dbl> <dbl>
##  1 tray            8        1  1.67    -227     202 1.28       14    -351     1
##  2 tray            8        2  1.13     -69     231 1.06      -44    -392     1
##  3 tray            8        3  2.60      60     195 0.963      17    -361     1
##  4 tray            8        4  2.61     199     213 0.863     -26    -356     1
##  5 tray            8        5  1.59    -241      43 0.931     -25    -397     1
##  6 tray            8        6  1.14     -51      59 0.896      10    -383     1
##  7 tray            8        7  2.14      99      62 0.879     -29    -372     1
##  8 tray            8        8  1.63     213      46 0.947     -27    -353     1
##  9 tray            8        9  2.56    -201    -123 1.65      -25    -385     1
## 10 tray            8       10  2.02     -70     -82 0.970     -19    -394     1
## # … with 5,990 more rows, and 1 more variable: platform <chr>
…
В нашей папке с данными есть файл targetpositions.xlsx, который содержит координаты, по которым мы сможем отобрать правильные клики наших испытуемых. Изучите этот файл, загрузите его как tibble и соедините его с нашим основным тибблом share.

Подумайте, какие колонки тибблов вы будете использовать для объединения.

## # A tibble: 6,150 x 23
##    trialtype setsize numtrial time1 click1x click1y time2 click2x click2y    id
##    <chr>       <dbl>    <dbl> <dbl>   <dbl>   <dbl> <dbl>   <dbl>   <dbl> <dbl>
##  1 tray            8        1  1.67    -227     202 1.28       14    -351     1
##  2 tray            8        2  1.13     -69     231 1.06      -44    -392     1
##  3 tray            8        3  2.60      60     195 0.963      17    -361     1
##  4 tray            8        4  2.61     199     213 0.863     -26    -356     1
##  5 tray            8        5  1.59    -241      43 0.931     -25    -397     1
##  6 tray            8        6  1.14     -51      59 0.896      10    -383     1
##  7 tray            8        7  2.14      99      62 0.879     -29    -372     1
##  8 tray            8        8  1.63     213      46 0.947     -27    -353     1
##  9 tray            8        9  2.56    -201    -123 1.65      -25    -385     1
## 10 tray            8       10  2.02     -70     -82 0.970     -19    -394     1
## # … with 6,140 more rows, and 13 more variables: platform <chr>, posx1 <dbl>,
## #   posy1 <dbl>, posxmin1 <dbl>, posxmax1 <dbl>, posymin1 <dbl>,
## #   posymax1 <dbl>, posx2 <dbl>, posy2 <dbl>, posxmin2 <dbl>, posxmax2 <dbl>,
## #   posymin2 <dbl>, posymax2 <dbl>

7.10 Группировка и аггрегация данных

Часто возникает необходимость аггрегировать данные, то есть посчитать какие-то показатели, причем на по всему датасету, а по группам, имеющимся в нём. Займемся этим мероприятием.

7.10.1 group_by() & ungroup()

Нам тиббл сам по себе не знает, что в нём есть какие-то группы. Поэтому ему надо рассказать, как дело обстоит. Сгруппируем наши данные по экспериметальным условиям:

share %>% group_by(trialtype)

## # A tibble: 6,150 x 23
## # Groups:   trialtype [3]
##    trialtype setsize numtrial time1 click1x click1y time2 click2x click2y    id
##    <chr>       <dbl>    <dbl> <dbl>   <dbl>   <dbl> <dbl>   <dbl>   <dbl> <dbl>
##  1 tray            8        1  1.67    -227     202 1.28       14    -351     1
##  2 tray            8        2  1.13     -69     231 1.06      -44    -392     1
##  3 tray            8        3  2.60      60     195 0.963      17    -361     1
##  4 tray            8        4  2.61     199     213 0.863     -26    -356     1
##  5 tray            8        5  1.59    -241      43 0.931     -25    -397     1
##  6 tray            8        6  1.14     -51      59 0.896      10    -383     1
##  7 tray            8        7  2.14      99      62 0.879     -29    -372     1
##  8 tray            8        8  1.63     213      46 0.947     -27    -353     1
##  9 tray            8        9  2.56    -201    -123 1.65      -25    -385     1
## 10 tray            8       10  2.02     -70     -82 0.970     -19    -394     1
## # … with 6,140 more rows, and 13 more variables: platform <chr>, posx1 <dbl>,
## #   posy1 <dbl>, posxmin1 <dbl>, posxmax1 <dbl>, posymin1 <dbl>,
## #   posymax1 <dbl>, posx2 <dbl>, posy2 <dbl>, posxmin2 <dbl>, posxmax2 <dbl>,
## #   posymin2 <dbl>, posymax2 <dbl>
…
В первой строчке аутпута появилось указание groupped. Это как раз то, что мы хотели сделать. Можно перезаписать наш тиббл и посмотреть, как он будет выводиться в консоль:

Если нам нужно убрать группировку, то есть функция ungroup():

share %>% ungroup()

## # A tibble: 6,150 x 23
##    trialtype setsize numtrial time1 click1x click1y time2 click2x click2y    id
##    <chr>       <dbl>    <dbl> <dbl>   <dbl>   <dbl> <dbl>   <dbl>   <dbl> <dbl>
##  1 tray            8        1  1.67    -227     202 1.28       14    -351     1
##  2 tray            8        2  1.13     -69     231 1.06      -44    -392     1
##  3 tray            8        3  2.60      60     195 0.963      17    -361     1
##  4 tray            8        4  2.61     199     213 0.863     -26    -356     1
##  5 tray            8        5  1.59    -241      43 0.931     -25    -397     1
##  6 tray            8        6  1.14     -51      59 0.896      10    -383     1
##  7 tray            8        7  2.14      99      62 0.879     -29    -372     1
##  8 tray            8        8  1.63     213      46 0.947     -27    -353     1
##  9 tray            8        9  2.56    -201    -123 1.65      -25    -385     1
## 10 tray            8       10  2.02     -70     -82 0.970     -19    -394     1
## # … with 6,140 more rows, and 13 more variables: platform <chr>, posx1 <dbl>,
## #   posy1 <dbl>, posxmin1 <dbl>, posxmax1 <dbl>, posymin1 <dbl>,
## #   posymax1 <dbl>, posx2 <dbl>, posy2 <dbl>, posxmin2 <dbl>, posxmax2 <dbl>,
## #   posymin2 <dbl>, posymax2 <dbl>
…
При предобработке данных нам часто необходимо усреднить экспериментальные пробы по респондентам. Возьмите имеющиеся данные share и подготовьте их к дисперсионному анализу.

Создайте новую логическую переменную, которая будет содержать информацию о том, корректно ли выполнена данная проба. Корректной считается проба, в которой координаты клика респондента (click1x, click1y) попали в целевые диапазоны ([posxmin1, posxmax1] и [posymin1, posymax1]).

Отберите только корректные пробы.

Рассчитайте среднее и стандартное отклонение времени реакции (time1) по экспериментальным условиям (trialtype, setsize) для каждого испытуемого. Итоговый тиббл также должен содержать колонку platform.

Сохраните результат в новый объект.

## `summarise()` regrouping output by 'id', 'trialtype', 'setsize' (override with `.groups` argument)

## # A tibble: 120 x 6
## # Groups:   id, trialtype, setsize [120]
##       id trialtype setsize platform  mean    sd
##    <dbl> <chr>       <dbl> <chr>    <dbl> <dbl>
##  1     1 dots            8 ios       1.59 0.467
##  2     1 dots           12 ios       1.88 0.647
##  3     1 dots           16 ios       2.18 1.14 
##  4     1 tray            8 ios       1.56 0.453
##  5     1 tray           12 ios       1.77 0.739
##  6     1 tray           16 ios       2.12 1.08 
##  7     2 dots            8 ios       1.54 0.566
##  8     2 dots           12 ios       1.59 0.613
##  9     2 dots           16 ios       1.99 1.00 
## 10     2 tray            8 ios       1.44 0.446
## # … with 110 more rows
7.11 Широкий и длинный формат

Мы получили новый тиббл который содержит аггрегированные данные. Теперь нам надо поговорить о широком и длинном форматах данных.

Как мы говорили ранее, tidy data задаёт нам следующий формат данных: по строкам идут наблюдения, по столбцам — отдельные переменные. Такой формат данных называется широким. Широкий он потому, что у нас может быть много отдельных переменных. Длиннный формат данных выглядит следующим образом: есть столбец индентификаторов (например, ID испытуемого), есть столбец переменных, и есть столбец значений этих переменных.

Это общая логика, и под каждую задачу у нас может быть свой длинный и свой широкий формат. Кроме того, данные могут быть разной «широкости» и разной «длинности», что тоже определяется конкретной задачей.

7.11.1 pivot_longer() & pivot_wider()

Наши данные сейчас — «средние». С одно стороны он — широкий, так как у нас есть две переменные mean и id, которые записаны в отдельных столбцах:

share_aggregated

## # A tibble: 120 x 6
## # Groups:   id, trialtype, setsize [120]
##       id trialtype setsize platform  mean    sd
##    <dbl> <chr>       <dbl> <chr>    <dbl> <dbl>
##  1     1 dots            8 ios       1.59 0.467
##  2     1 dots           12 ios       1.88 0.647
##  3     1 dots           16 ios       2.18 1.14 
##  4     1 tray            8 ios       1.56 0.453
##  5     1 tray           12 ios       1.77 0.739
##  6     1 tray           16 ios       2.12 1.08 
##  7     2 dots            8 ios       1.54 0.566
##  8     2 dots           12 ios       1.59 0.613
##  9     2 dots           16 ios       1.99 1.00 
## 10     2 tray            8 ios       1.44 0.446
## # … with 110 more rows

Мы можем перевести наши данный в длинный формат:

share_aggregated %>% pivot_longer(cols = c('mean', 'sd'))

## # A tibble: 240 x 6
## # Groups:   id, trialtype, setsize [120]
##       id trialtype setsize platform name  value
##    <dbl> <chr>       <dbl> <chr>    <chr> <dbl>
##  1     1 dots            8 ios      mean  1.59 
##  2     1 dots            8 ios      sd    0.467
##  3     1 dots           12 ios      mean  1.88 
##  4     1 dots           12 ios      sd    0.647
##  5     1 dots           16 ios      mean  2.18 
##  6     1 dots           16 ios      sd    1.14 
##  7     1 tray            8 ios      mean  1.56 
##  8     1 tray            8 ios      sd    0.453
##  9     1 tray           12 ios      mean  1.77 
## 10     1 tray           12 ios      sd    0.739
## # … with 230 more rows
…
